{
    "page": 1,
    "total_results": 322858,
    "total_pages": 16143,
    "results": [
        {
            "vote_count": 4348,
            "id": 211672,
            "video": false,
            "vote_average": 6.4,
            "title": "Minions",
            "popularity": 900.715453,
            "poster_path": "/q0R4crx2SehcEEQEkYObktdeFy.jpg",
            "original_language": "en",
            "original_title": "Minions",
            "genre_ids": [
                10751,
                16,
                12,
                35
            ],
            "backdrop_path": "/uX7LXnsC7bZJZjn048UCOwkPXWJ.jpg",
            "adult": false,
            "overview": "Minions Stuart, Kevin and Bob are recruited by Scarlet Overkill, a super-villain who, alongside her inventor husband Herb, hatches a plot to take over the world.",
            "release_date": "2015-06-17"
        },
        {
            "vote_count": 5008,
            "id": 321612,
            "video": false,
            "vote_average": 6.8,
            "title": "Beauty and the Beast",
            "popularity": 450.848744,
            "poster_path": "/tWqifoYuwLETmmasnGHO7xBjEtt.jpg",
            "original_language": "en",
            "original_title": "Beauty and the Beast",
            "genre_ids": [
                10751,
                14,
                10749
            ],
            "backdrop_path": "/6aUWe0GSl69wMTSWWexsorMIvwU.jpg",
            "adult": false,
            "overview": "A live-action adaptation of Disney's version of the classic 'Beauty and the Beast' tale of a cursed prince and a beautiful young woman who helps him break the spell.",
            "release_date": "2017-03-16"
        },
        {
            "vote_count": 678,
            "id": 396422,
            "video": false,
            "vote_average": 6.4,
            "title": "Annabelle: Creation",
            "popularity": 364.932913,
            "poster_path": "/tb86j8jVCVsdZnzf8I6cIi65IeM.jpg",
            "original_language": "en",
            "original_title": "Annabelle: Creation",
            "genre_ids": [
                53,
                27
            ],
            "backdrop_path": "/o8u0NyEigCEaZHBdCYTRfXR8U4i.jpg",
            "adult": false,
            "overview": "Several years after the tragic death of their little girl, a dollmaker and his wife welcome a nun and several girls from a shuttered orphanage into their home, soon becoming the target of the dollmaker's possessed creation, Annabelle.",
            "release_date": "2017-08-03"
        },
        {
            "vote_count": 1555,
            "id": 324852,
            "video": false,
            "vote_average": 6.2,
            "title": "Despicable Me 3",
            "popularity": 249.277009,
            "poster_path": "/5qcUGqWoWhEsoQwNUrtf3y3fcWn.jpg",
            "original_language": "en",
            "original_title": "Despicable Me 3",
            "genre_ids": [
                878,
                12,
                16,
                35,
                10751
            ],
            "backdrop_path": "/ftRkFtAGuHngHnLiOxktq0aCVMF.jpg",
            "adult": false,
            "overview": "Gru and his wife Lucy must stop former '80s child star Balthazar Bratt from achieving world domination.",
            "release_date": "2017-06-15"
        },
        {
            "vote_count": 2895,
            "id": 315635,
            "video": false,
            "vote_average": 7.3,
            "title": "Spider-Man: Homecoming",
            "popularity": 232.965877,
            "poster_path": "/c24sv2weTHPsmDa7jEMN0m2P3RT.jpg",
            "original_language": "en",
            "original_title": "Spider-Man: Homecoming",
            "genre_ids": [
                28,
                12,
                878
            ],
            "backdrop_path": "/vc8bCGjdVp0UbMNLzHnHSLRbBWQ.jpg",
            "adult": false,
            "overview": "Following the events of Captain America: Civil War, Peter Parker, with the help of his mentor Tony Stark, tries to balance his life as an ordinary high school student in Queens, New York City, with fighting crime as his superhero alter ego Spider-Man as a new threat, the Vulture, emerges.",
            "release_date": "2017-07-05"
        },
        {
            "vote_count": 329,
            "id": 390043,
            "video": false,
            "vote_average": 6.5,
            "title": "The Hitman's Bodyguard",
            "popularity": 215.25026,
            "poster_path": "/5CGjlz2vyBhW5xHW4eNOZIdgzYq.jpg",
            "original_language": "en",
            "original_title": "The Hitman's Bodyguard",
            "genre_ids": [
                28,
                35
            ],
            "backdrop_path": "/dkA8j5DwUdUT3h658Mt1QgQHTR6.jpg",
            "adult": false,
            "overview": "The world's top bodyguard gets a new client, a hit man who must testify at the International Court of Justice. They must put their differences aside and work together to make it to the trial on time.",
            "release_date": "2017-08-16"
        },
        {
            "vote_count": 4130,
            "id": 283995,
            "video": false,
            "vote_average": 7.6,
            "title": "Guardians of the Galaxy Vol. 2",
            "popularity": 190.946364,
            "poster_path": "/y4MBh0EjBlMuOzv9axM4qJlmhzz.jpg",
            "original_language": "en",
            "original_title": "Guardians of the Galaxy Vol. 2",
            "genre_ids": [
                28,
                12,
                35,
                878
            ],
            "backdrop_path": "/aJn9XeesqsrSLKcHfHP4u5985hn.jpg",
            "adult": false,
            "overview": "The Guardians must fight to keep their newfound family together as they unravel the mysteries of Peter Quill's true parentage.",
            "release_date": "2017-04-19"
        },
        {
            "vote_count": 495,
            "id": 353491,
            "video": false,
            "vote_average": 5.6,
            "title": "The Dark Tower",
            "popularity": 177.828422,
            "poster_path": "/i9GUSgddIqrroubiLsvvMRYyRy0.jpg",
            "original_language": "en",
            "original_title": "The Dark Tower",
            "genre_ids": [
                28,
                37,
                878,
                14,
                27
            ],
            "backdrop_path": "/2n7Zn6WxJ76ccOwnuQHuhSFMbqt.jpg",
            "adult": false,
            "overview": "The last Gunslinger, Roland Deschain, has been locked in an eternal battle with Walter O’Dim, also known as the Man in Black, determined to prevent him from toppling the Dark Tower, which holds the universe together. With the fate of the worlds at stake, good and evil will collide in the ultimate battle as only Roland can defend the Tower from the Man in Black.",
            "release_date": "2017-08-03"
        },
        {
            "vote_count": 1866,
            "id": 374720,
            "video": false,
            "vote_average": 7.4,
            "title": "Dunkirk",
            "popularity": 150.662845,
            "poster_path": "/bOXBV303Fgkzn2K4FeKDc0O31q4.jpg",
            "original_language": "en",
            "original_title": "Dunkirk",
            "genre_ids": [
                28,
                18,
                36,
                53,
                10752
            ],
            "backdrop_path": "/fudEG1VUWuOqleXv6NwCExK0VLy.jpg",
            "adult": false,
            "overview": "Miraculous evacuation of Allied soldiers from Belgium, Britain, Canada, and France, who were cut off and surrounded by the German army from the beaches and harbor of Dunkirk, France, between May 26 and June 04, 1940, during Battle of France in World War II.",
            "release_date": "2017-07-19"
        },
        {
            "vote_count": 9398,
            "id": 118340,
            "video": false,
            "vote_average": 7.9,
            "title": "Guardians of the Galaxy",
            "popularity": 145.400921,
            "poster_path": "/y31QB9kn3XSudA15tV7UWQ9XLuW.jpg",
            "original_language": "en",
            "original_title": "Guardians of the Galaxy",
            "genre_ids": [
                28,
                878,
                12
            ],
            "backdrop_path": "/bHarw8xrmQeqf3t8HpuMY7zoK4x.jpg",
            "adult": false,
            "overview": "Light years from Earth, 26 years after being abducted, Peter Quill finds himself the prime target of a manhunt after discovering an orb wanted by Ronan the Accuser.",
            "release_date": "2014-07-30"
        },
        {
            "vote_count": 1419,
            "id": 339846,
            "video": false,
            "vote_average": 6,
            "title": "Baywatch",
            "popularity": 138.904711,
            "poster_path": "/6HE4xd8zloDqmjMZuhUCCw2UcY1.jpg",
            "original_language": "en",
            "original_title": "Baywatch",
            "genre_ids": [
                28,
                35
            ],
            "backdrop_path": "/t6TL7V9IsT4Ktx6YO8b1UYj3agd.jpg",
            "adult": false,
            "overview": "Devoted lifeguard Mitch Buchannon butts heads with a brash new recruit. Together, they uncover a local criminal plot that threatens the future of the Bay.",
            "release_date": "2017-05-12"
        },
        {
            "vote_count": 10615,
            "id": 293660,
            "video": false,
            "vote_average": 7.4,
            "title": "Deadpool",
            "popularity": 137.902697,
            "poster_path": "/inVq3FRqcYIRl2la8iZikYYxFNR.jpg",
            "original_language": "en",
            "original_title": "Deadpool",
            "genre_ids": [
                28,
                12,
                35
            ],
            "backdrop_path": "/n1y094tVDFATSzkTnFxoGZ1qNsG.jpg",
            "adult": false,
            "overview": "Deadpool tells the origin story of former Special Forces operative turned mercenary Wade Wilson, who after being subjected to a rogue experiment that leaves him with accelerated healing powers, adopts the alter ego Deadpool. Armed with his new abilities and a dark, twisted sense of humor, Deadpool hunts down the man who nearly destroyed his life.",
            "release_date": "2016-02-09"
        },
        {
            "vote_count": 10484,
            "id": 157336,
            "video": false,
            "vote_average": 8.1,
            "title": "Interstellar",
            "popularity": 136.273606,
            "poster_path": "/nBNZadXqJSdt05SHLqgT0HuC5Gm.jpg",
            "original_language": "en",
            "original_title": "Interstellar",
            "genre_ids": [
                12,
                18,
                878
            ],
            "backdrop_path": "/xu9zaAevzQ5nnrsXN6JcahLnG4i.jpg",
            "adult": false,
            "overview": "Interstellar chronicles the adventures of a group of explorers who make use of a newly discovered wormhole to surpass the limitations on human space travel and conquer the vast distances involved in an interstellar voyage.",
            "release_date": "2014-11-05"
        },
        {
            "vote_count": 2298,
            "id": 126889,
            "video": false,
            "vote_average": 5.7,
            "title": "Alien: Covenant",
            "popularity": 132.882432,
            "poster_path": "/zecMELPbU5YMQpC81Z8ImaaXuf9.jpg",
            "original_language": "en",
            "original_title": "Alien: Covenant",
            "genre_ids": [
                27,
                878,
                53
            ],
            "backdrop_path": "/kMU8trT43p5LFoJ4plIySMOsZ1T.jpg",
            "adult": false,
            "overview": "Bound for a remote planet on the far side of the galaxy, the crew of the colony ship 'Covenant' discovers what is thought to be an uncharted paradise, but is actually a dark, dangerous world – which has its sole inhabitant the 'synthetic', David, survivor of the doomed Prometheus expedition.",
            "release_date": "2017-05-09"
        },
        {
            "vote_count": 5721,
            "id": 263115,
            "video": false,
            "vote_average": 7.5,
            "title": "Logan",
            "popularity": 131.53701,
            "poster_path": "/gGBu0hKw9BGddG8RkRAMX7B6NDB.jpg",
            "original_language": "en",
            "original_title": "Logan",
            "genre_ids": [
                28,
                18,
                878
            ],
            "backdrop_path": "/5pAGnkFYSsFJ99ZxDIYnhQbQFXs.jpg",
            "adult": false,
            "overview": "In the near future, a weary Logan cares for an ailing Professor X in a hideout on the Mexican border. But Logan's attempts to hide from the world and his legacy are upended when a young mutant arrives, pursued by dark forces.",
            "release_date": "2017-02-28"
        },
        {
            "vote_count": 8443,
            "id": 135397,
            "video": false,
            "vote_average": 6.5,
            "title": "Jurassic World",
            "popularity": 131.099637,
            "poster_path": "/jjBgi2r5cRt36xF6iNUEhzscEcb.jpg",
            "original_language": "en",
            "original_title": "Jurassic World",
            "genre_ids": [
                28,
                12,
                878,
                53
            ],
            "backdrop_path": "/dkMD5qlogeRMiEixC4YNPUvax2T.jpg",
            "adult": false,
            "overview": "Twenty-two years after the events of Jurassic Park, Isla Nublar now features a fully functioning dinosaur theme park, Jurassic World, as originally envisioned by John Hammond.",
            "release_date": "2015-06-09"
        },
        {
            "vote_count": 1372,
            "id": 281338,
            "video": false,
            "vote_average": 6.7,
            "title": "War for the Planet of the Apes",
            "popularity": 126.682261,
            "poster_path": "/y52mjaCLoJJzxfcDDlksKDngiDx.jpg",
            "original_language": "en",
            "original_title": "War for the Planet of the Apes",
            "genre_ids": [
                18,
                878,
                10752
            ],
            "backdrop_path": "/ulMscezy9YX0bhknvJbZoUgQxO5.jpg",
            "adult": false,
            "overview": "Caesar and his apes are forced into a deadly conflict with an army of humans led by a ruthless Colonel. After the apes suffer unimaginable losses, Caesar wrestles with his darker instincts and begins his own mythic quest to avenge his kind. As the journey finally brings them face to face, Caesar and the Colonel are pitted against each other in an epic battle that will determine the fate of both their species and the future of the planet.",
            "release_date": "2017-07-11"
        },
        {
            "vote_count": 9192,
            "id": 76341,
            "video": false,
            "vote_average": 7.2,
            "title": "Mad Max: Fury Road",
            "popularity": 120.522146,
            "poster_path": "/kqjL17yufvn9OVLyXYpvtyrFfak.jpg",
            "original_language": "en",
            "original_title": "Mad Max: Fury Road",
            "genre_ids": [
                28,
                12,
                878,
                53
            ],
            "backdrop_path": "/phszHPFVhPHhMZgo0fWTKBDQsJA.jpg",
            "adult": false,
            "overview": "An apocalyptic story set in the furthest reaches of our planet, in a stark desert landscape where humanity is broken, and most everyone is crazed fighting for the necessities of life. Within this world exist two rebels on the run who just might be able to restore order. There's Max, a man of action and a man of few words, who seeks peace of mind following the loss of his wife and child in the aftermath of the chaos. And Furiosa, a woman of action and a woman who believes her path to survival may be achieved if she can make it across the desert back to her childhood homeland.",
            "release_date": "2015-05-13"
        },
        {
            "vote_count": 2273,
            "id": 315837,
            "video": false,
            "vote_average": 5.9,
            "title": "Ghost in the Shell",
            "popularity": 109.206033,
            "poster_path": "/si1ZyELNHdPUZw4pXR5KjMIIsBF.jpg",
            "original_language": "en",
            "original_title": "Ghost in the Shell",
            "genre_ids": [
                28,
                80,
                18,
                9648,
                878,
                53
            ],
            "backdrop_path": "/jGPSVArC0GS2VVc0aGAqGTjfFOG.jpg",
            "adult": false,
            "overview": "In the near future, Major is the first of her kind: a human saved from a terrible crash, then cyber-enhanced to be a perfect soldier devoted to stopping the world's most dangerous criminals.",
            "release_date": "2017-03-29"
        },
        {
            "vote_count": 514,
            "id": 351460,
            "video": false,
            "vote_average": 4.6,
            "title": "Death Note",
            "popularity": 104.874606,
            "poster_path": "/fJAvGOitU8y53ByeHnM4avtKFaG.jpg",
            "original_language": "en",
            "original_title": "Death Note",
            "genre_ids": [
                9648,
                14,
                27,
                53
            ],
            "backdrop_path": "/1SkIz6eBdPWM6k3FOmodo7sbTJw.jpg",
            "adult": false,
            "overview": "A young man comes to possess a supernatural notebook, the Death Note, that grants him the power to kill any person simply by writing down their name on the pages. He then decides to use the notebook to kill criminals and change the world, but an enigmatic detective attempts to track him down and end his reign of terror.",
            "release_date": "2017-08-25"
        }
    ]
}
